{
  "meta": {
    "count": 106
  },
  "links": {
    "first": "/api/galaxy/content/community/v3/plugin/ansible/content/community/collections/index/community/general/versions/?limit=10&offset=0",
    "previous": null,
    "next": "/api/galaxy/content/community/v3/plugin/ansible/content/community/collections/index/community/general/versions/?limit=10&offset=10",
    "last": "/api/galaxy/content/community/v3/plugin/ansible/content/community/collections/index/community/general/versions/?limit=10&offset=96"
  },
  "data": [
    {
      "version": "6.1.0",
      "href": "/api/galaxy/content/community/v3/plugin/ansible/content/community/collections/index/community/general/versions/6.1.0/",
      "created_at": "2022-10-21T20:36:24.892616Z",
      "updated_at": "2022-10-21T20:36:24.892633Z",
      "requires_ansible": ">=2.11.0"
    },
    {
      "version": "6.0.1",
      "href": "/api/galaxy/content/community/v3/plugin/ansible/content/community/collections/index/community/general/versions/6.0.1/",
      "created_at": "2022-10-21T20:36:24.892616Z",
      "updated_at": "2022-10-21T20:36:24.892633Z",
      "requires_ansible": ">=2.11.0"
    }
  ]
}